filipwastberg - Översätt provresultat från Excel till betyg i R
…
För att skriva flera “if-else” kan vi använda funktionen case_when() i mutate(), båda från paketet dplyr som laddats i tidyverse.

klass_1 <- klass_1 %>% 
  mutate(betyg = case_when(
    provresultat >= 95 ~ "A",
    provresultat >= 85 ~ "B",
    provresultat >= 75 ~ "C",
    provresultat >= 65 ~ "D",
    provresultat >= 55 ~ "E",
    provresultat < 55 ~ "F",
  ))

klass_1

# A tibble: 30 × 3
   namn      provresultat betyg
   <chr>            <dbl> <chr>
 1 Nanay               95 A    
 2 Manoshak            79 C    
 3 Albano              58 E    
 4 Minotti             61 E    
 5 Dahlith             73 D    
 6 Lillebror           80 C    
 7 Maasum              74 D    
 8 Winner              71 D    
 9 Lilleby             91 B    
10 Ratu                58 E    
# … with 20 more rows
…
Vi börjar meda att skriva en egen funktion:

library(stringr)

read_klass <- function(path){
  data <- read_excel(path)
  
  data$klass <- str_extract(path, "klass_[:digit:]+")
  
  data
}

read_klass("data/klass_4.xlsx")

# A tibble: 30 × 3
   namn        provresultat klass  
   <chr>              <dbl> <chr>  
 1 Mahsuni               41 klass_4
 2 Aldiona               57 klass_4
 3 Mervis                49 klass_4
 4 Niangi                42 klass_4
 5 Laxmi                 48 klass_4
 6 Helgevold             44 klass_4
 7 Yayah                100 klass_4
 8 Irgens                93 klass_4
 9 Frans-Lukas           82 klass_4
10 Stålis                57 klass_4
# … with 20 more rows

Vi kan iterera den här funktionen över alla klasser och läsa in allt till en data.frame med map_df() från paketet purrr (också från tidyverse).

library(purrr)

klasser <- map_df(data_filer, read_klass)

klasser

# A tibble: 720 × 3
   namn      provresultat klass  
   <chr>            <dbl> <chr>  
 1 Nanay               95 klass_1
 2 Manoshak            79 klass_1
 3 Albano              58 klass_1
 4 Minotti             61 klass_1
 5 Dahlith             73 klass_1
 6 Lillebror           80 klass_1
 7 Maasum              74 klass_1
 8 Winner              71 klass_1
 9 Lilleby             91 klass_1
10 Ratu                58 klass_1
# … with 710 more rows
Vi kan enkelt applicera vår betygomräknare till alla klasser:

klasser <- klasser %>% 
  mutate(betyg = case_when(
    provresultat >= 95 ~ "A",
    provresultat >= 85 ~ "B",
    provresultat >= 75 ~ "C",
    provresultat >= 65 ~ "D",
    provresultat >= 55 ~ "E",
    provresultat < 55 ~ "F",
  ))

klasser

# A tibble: 720 × 4
   namn      provresultat klass   betyg
   <chr>            <dbl> <chr>   <chr>
 1 Nanay               95 klass_1 A    
 2 Manoshak            79 klass_1 C    
 3 Albano              58 klass_1 E    
 4 Minotti             61 klass_1 E    
 5 Dahlith             73 klass_1 D    
 6 Lillebror           80 klass_1 C    
 7 Maasum              74 klass_1 D    
 8 Winner              71 klass_1 D    
 9 Lilleby             91 klass_1 B    
10 Ratu                58 klass_1 E    
# … with 710 more rows
…
