filipwastberg - Hämta data från Kolada till R
…
Hur Kolada fungerar

På Koladas hemsida kan du enkelt söka efter olika KPI-er. Där kan du också få en enkel tabell och visualisering av resultatet. rKolada ger oss möjlighet att programmatiskt ta ut dessa tabeller, vilket underlättar om vi behöver ta ut statistik fler gånger än en.

Med funktionen get_kpi() får vi en tabell med alla KPI-er som finns tillgängliga.

library(rKolada)
library(tidyverse)

kpis <- get_kpi()

kpis

# A tibble: 5,522 × 13
   auspices description      has_ou_data id    is_divided_by_g… municipality_ty…
   <chr>    <chr>            <lgl>       <chr>            <int> <chr>           
 1 E        Personalkostnad… NA          N000…                0 K               
 2 E        Personalkostnad… FALSE       N000…                0 K               
 3 X        Kommunalekonomi… FALSE       N000…                0 K               
 4 <NA>     Externa intäkte… FALSE       N000…                0 K               
 5 <NA>     Inkomstutjämnin… FALSE       N000…                0 K               
 6 <NA>     Kostnadsutjämni… FALSE       N000…                0 K               
 7 X        Regleringsbidra… FALSE       N000…                0 K               
 8 <NA>     Utjämningssyste… FALSE       N000…                0 K               
 9 X        Införandebidrag… FALSE       N000…                0 K               
10 X        Strukturbidrag,… FALSE       N000…                0 K               
# … with 5,512 more rows, and 7 more variables: operating_area <chr>,
#   ou_publication_date <chr>, perspective <chr>, prel_publication_date <chr>,
#   publ_period <chr>, publication_date <chr>, title <chr>
…
För att få ner data för detta KPI behöver 1) ett ID och 2) specificera vilken eller vilka kommuner du vill ha data för.

ID får du enkelt ut genom kpi_extract_ids().

kpi_extract_ids(kpi_bygglov)

[1] "N07925"

De kommuner, eller regionala indelningar som finns, kan vi på motsvarande sätt få genom get_municipality().

get_municipality()

# A tibble: 312 × 3
   id    title      type 
   <chr> <chr>      <chr>
 1 1440  Ale        K    
 2 1489  Alingsås   K    
 3 0764  Alvesta    K    
 4 0604  Aneby      K    
 5 1984  Arboga     K    
 6 2506  Arjeplog   K    
 7 2505  Arvidsjaur K    
 8 1784  Arvika     K    
 9 1882  Askersund  K    
10 2084  Avesta     K    
# … with 302 more rows
…
# Get values
grp_data <- get_values(
  kpi = kpi_id,
  municipality = c(
    munic_grp,
    finspang_id
  )
)

grp_data

# A tibble: 56 × 8
   kpi    municipality_id  year count gender value municipality municipality_ty…
   <chr>  <chr>           <int> <int> <chr>  <dbl> <chr>        <chr>           
 1 N07925 0562             2015     1 T       0.7  Finspång     K               
 2 N07925 1272             2015     1 T       6    Bromölla     K               
 3 N07925 1273             2015     1 T       1.8  Osby         K               
 4 N07925 1884             2015     1 T       3    Nora         K               
 5 N07925 1885             2015     1 T       5.6  Lindesberg   K               
 6 N07925 1961             2015     1 T       3.6  Hallstahamm… K               
 7 N07925 1981             2015     1 T       3.8  Sala         K               
 8 N07925 1984             2015     1 T       0.9  Arboga       K               
 9 N07925 0562             2016     1 T       3.62 Finspång     K               
10 N07925 1272             2016     1 T       5.15 Bromölla     K               
# … with 46 more rows
…
