filipwastberg - GIS och Kartor i R
…
library(sf)

Linking to GEOS 3.10.2, GDAL 3.4.2, PROJ 8.2.1; sf_use_s2() is TRUE

lan <- read_sf("lan_rt90/Lan_RT90_region.shp")

lan

Simple feature collection with 21 features and 2 fields
Geometry type: MULTIPOLYGON
Dimension:     XY
Bounding box:  xmin: 1230810 ymin: 6137234 xmax: 1880916 ymax: 7669583
Projected CRS: RT90 2.5 gon V
# A tibble: 21 × 3
   LnKod LnNamn                                                         geometry
   <chr> <chr>                                                <MULTIPOLYGON [m]>
 1 01    Stockholms    (((1581896 6569894, 1584367 6572819, 1585410 6571048, 15…
 2 03    Uppsala       (((1588105 6611272, 1587491 6610219, 1591541 6601881, 15…
 3 04    Södermanlands (((1508793 6538144, 1503218 6541877, 1502168 6544820, 14…
 4 05    Östergötlands (((1448643 6445587, 1446285 6441023, 1438051 6439351, 14…
 5 06    Jönköpings    (((1451287 6423652, 1452508 6419347, 1456711 6414227, 14…
 6 07    Kronobergs    (((1455396 6340554, 1456478 6342310, 1460661 6342030, 14…
 7 08    Kalmar        (((1495818 6327165, 1491423 6329015, 1489201 6333906, 14…
 8 09    Gotlands      (((1658877 6415526, 1662237 6416751, 1664956 6417647, 16…
 9 10    Blekinge      (((1423434 6230844, 1422094 6233619, 1418608 6233013, 14…
10 12    Skåne         (((1370410 6257557, 1375642 6259726, 1380641 6259554, 13…
# … with 11 more rows
…
